height;765
width;1360
border;0.002
am_bait;150
am_herb;80
ls_herb;1000
vel_herb;0.0023
rep_herb;3
am_carn;41
ls_carn;1000
vel_carn;0.0027
rep_carn;4
hideouts;False
am_hideout;20
game_state;True
plot_id;1
resetbuttonstate;False
