<?xml version="1.0" encoding="utf-8" standalone="no"?>
<!DOCTYPE svg PUBLIC "-//W3C//DTD SVG 1.1//EN"
  "http://www.w3.org/Graphics/SVG/1.1/DTD/svg11.dtd">
<!-- Created with matplotlib (https://matplotlib.org/) -->
<svg height="504pt" version="1.1" viewBox="0 0 720 504" width="720pt" xmlns="http://www.w3.org/2000/svg" xmlns:xlink="http://www.w3.org/1999/xlink">
 <defs>
  <style type="text/css">
*{stroke-linecap:butt;stroke-linejoin:round;white-space:pre;}
  </style>
 </defs>
 <g id="figure_1">
  <g id="patch_1">
   <path d="M 0 504 
L 720 504 
L 720 0 
L 0 0 
z
" style="fill:#ffffff;"/>
  </g>
  <g id="axes_1">
   <g id="patch_2">
    <path d="M 90 448.56 
L 648 448.56 
L 648 60.48 
L 90 60.48 
z
" style="fill:#ffffff;"/>
   </g>
   <g id="matplotlib.axis_1">
    <g id="text_1">
     <!-- Time -->
     <defs>
      <path d="M -0.296875 72.90625 
L 61.375 72.90625 
L 61.375 64.59375 
L 35.5 64.59375 
L 35.5 0 
L 25.59375 0 
L 25.59375 64.59375 
L -0.296875 64.59375 
z
" id="DejaVuSans-84"/>
      <path d="M 9.421875 54.6875 
L 18.40625 54.6875 
L 18.40625 0 
L 9.421875 0 
z
M 9.421875 75.984375 
L 18.40625 75.984375 
L 18.40625 64.59375 
L 9.421875 64.59375 
z
" id="DejaVuSans-105"/>
      <path d="M 52 44.1875 
Q 55.375 50.25 60.0625 53.125 
Q 64.75 56 71.09375 56 
Q 79.640625 56 84.28125 50.015625 
Q 88.921875 44.046875 88.921875 33.015625 
L 88.921875 0 
L 79.890625 0 
L 79.890625 32.71875 
Q 79.890625 40.578125 77.09375 44.375 
Q 74.3125 48.1875 68.609375 48.1875 
Q 61.625 48.1875 57.5625 43.546875 
Q 53.515625 38.921875 53.515625 30.90625 
L 53.515625 0 
L 44.484375 0 
L 44.484375 32.71875 
Q 44.484375 40.625 41.703125 44.40625 
Q 38.921875 48.1875 33.109375 48.1875 
Q 26.21875 48.1875 22.15625 43.53125 
Q 18.109375 38.875 18.109375 30.90625 
L 18.109375 0 
L 9.078125 0 
L 9.078125 54.6875 
L 18.109375 54.6875 
L 18.109375 46.1875 
Q 21.1875 51.21875 25.484375 53.609375 
Q 29.78125 56 35.6875 56 
Q 41.65625 56 45.828125 52.96875 
Q 50 49.953125 52 44.1875 
z
" id="DejaVuSans-109"/>
      <path d="M 56.203125 29.59375 
L 56.203125 25.203125 
L 14.890625 25.203125 
Q 15.484375 15.921875 20.484375 11.0625 
Q 25.484375 6.203125 34.421875 6.203125 
Q 39.59375 6.203125 44.453125 7.46875 
Q 49.3125 8.734375 54.109375 11.28125 
L 54.109375 2.78125 
Q 49.265625 0.734375 44.1875 -0.34375 
Q 39.109375 -1.421875 33.890625 -1.421875 
Q 20.796875 -1.421875 13.15625 6.1875 
Q 5.515625 13.8125 5.515625 26.8125 
Q 5.515625 40.234375 12.765625 48.109375 
Q 20.015625 56 32.328125 56 
Q 43.359375 56 49.78125 48.890625 
Q 56.203125 41.796875 56.203125 29.59375 
z
M 47.21875 32.234375 
Q 47.125 39.59375 43.09375 43.984375 
Q 39.0625 48.390625 32.421875 48.390625 
Q 24.90625 48.390625 20.390625 44.140625 
Q 15.875 39.890625 15.1875 32.171875 
z
" id="DejaVuSans-101"/>
     </defs>
     <g transform="translate(356.6125 460.158437)scale(0.1 -0.1)">
      <use xlink:href="#DejaVuSans-84"/>
      <use x="61.037109" xlink:href="#DejaVuSans-105"/>
      <use x="88.820312" xlink:href="#DejaVuSans-109"/>
      <use x="186.232422" xlink:href="#DejaVuSans-101"/>
     </g>
    </g>
   </g>
   <g id="matplotlib.axis_2">
    <g id="text_2">
     <!-- Population -->
     <defs>
      <path d="M 19.671875 64.796875 
L 19.671875 37.40625 
L 32.078125 37.40625 
Q 38.96875 37.40625 42.71875 40.96875 
Q 46.484375 44.53125 46.484375 51.125 
Q 46.484375 57.671875 42.71875 61.234375 
Q 38.96875 64.796875 32.078125 64.796875 
z
M 9.8125 72.90625 
L 32.078125 72.90625 
Q 44.34375 72.90625 50.609375 67.359375 
Q 56.890625 61.8125 56.890625 51.125 
Q 56.890625 40.328125 50.609375 34.8125 
Q 44.34375 29.296875 32.078125 29.296875 
L 19.671875 29.296875 
L 19.671875 0 
L 9.8125 0 
z
" id="DejaVuSans-80"/>
      <path d="M 30.609375 48.390625 
Q 23.390625 48.390625 19.1875 42.75 
Q 14.984375 37.109375 14.984375 27.296875 
Q 14.984375 17.484375 19.15625 11.84375 
Q 23.34375 6.203125 30.609375 6.203125 
Q 37.796875 6.203125 41.984375 11.859375 
Q 46.1875 17.53125 46.1875 27.296875 
Q 46.1875 37.015625 41.984375 42.703125 
Q 37.796875 48.390625 30.609375 48.390625 
z
M 30.609375 56 
Q 42.328125 56 49.015625 48.375 
Q 55.71875 40.765625 55.71875 27.296875 
Q 55.71875 13.875 49.015625 6.21875 
Q 42.328125 -1.421875 30.609375 -1.421875 
Q 18.84375 -1.421875 12.171875 6.21875 
Q 5.515625 13.875 5.515625 27.296875 
Q 5.515625 40.765625 12.171875 48.375 
Q 18.84375 56 30.609375 56 
z
" id="DejaVuSans-111"/>
      <path d="M 18.109375 8.203125 
L 18.109375 -20.796875 
L 9.078125 -20.796875 
L 9.078125 54.6875 
L 18.109375 54.6875 
L 18.109375 46.390625 
Q 20.953125 51.265625 25.265625 53.625 
Q 29.59375 56 35.59375 56 
Q 45.5625 56 51.78125 48.09375 
Q 58.015625 40.1875 58.015625 27.296875 
Q 58.015625 14.40625 51.78125 6.484375 
Q 45.5625 -1.421875 35.59375 -1.421875 
Q 29.59375 -1.421875 25.265625 0.953125 
Q 20.953125 3.328125 18.109375 8.203125 
z
M 48.6875 27.296875 
Q 48.6875 37.203125 44.609375 42.84375 
Q 40.53125 48.484375 33.40625 48.484375 
Q 26.265625 48.484375 22.1875 42.84375 
Q 18.109375 37.203125 18.109375 27.296875 
Q 18.109375 17.390625 22.1875 11.75 
Q 26.265625 6.109375 33.40625 6.109375 
Q 40.53125 6.109375 44.609375 11.75 
Q 48.6875 17.390625 48.6875 27.296875 
z
" id="DejaVuSans-112"/>
      <path d="M 8.5 21.578125 
L 8.5 54.6875 
L 17.484375 54.6875 
L 17.484375 21.921875 
Q 17.484375 14.15625 20.5 10.265625 
Q 23.53125 6.390625 29.59375 6.390625 
Q 36.859375 6.390625 41.078125 11.03125 
Q 45.3125 15.671875 45.3125 23.6875 
L 45.3125 54.6875 
L 54.296875 54.6875 
L 54.296875 0 
L 45.3125 0 
L 45.3125 8.40625 
Q 42.046875 3.421875 37.71875 1 
Q 33.40625 -1.421875 27.6875 -1.421875 
Q 18.265625 -1.421875 13.375 4.4375 
Q 8.5 10.296875 8.5 21.578125 
z
M 31.109375 56 
z
" id="DejaVuSans-117"/>
      <path d="M 9.421875 75.984375 
L 18.40625 75.984375 
L 18.40625 0 
L 9.421875 0 
z
" id="DejaVuSans-108"/>
      <path d="M 34.28125 27.484375 
Q 23.390625 27.484375 19.1875 25 
Q 14.984375 22.515625 14.984375 16.5 
Q 14.984375 11.71875 18.140625 8.90625 
Q 21.296875 6.109375 26.703125 6.109375 
Q 34.1875 6.109375 38.703125 11.40625 
Q 43.21875 16.703125 43.21875 25.484375 
L 43.21875 27.484375 
z
M 52.203125 31.203125 
L 52.203125 0 
L 43.21875 0 
L 43.21875 8.296875 
Q 40.140625 3.328125 35.546875 0.953125 
Q 30.953125 -1.421875 24.3125 -1.421875 
Q 15.921875 -1.421875 10.953125 3.296875 
Q 6 8.015625 6 15.921875 
Q 6 25.140625 12.171875 29.828125 
Q 18.359375 34.515625 30.609375 34.515625 
L 43.21875 34.515625 
L 43.21875 35.40625 
Q 43.21875 41.609375 39.140625 45 
Q 35.0625 48.390625 27.6875 48.390625 
Q 23 48.390625 18.546875 47.265625 
Q 14.109375 46.140625 10.015625 43.890625 
L 10.015625 52.203125 
Q 14.9375 54.109375 19.578125 55.046875 
Q 24.21875 56 28.609375 56 
Q 40.484375 56 46.34375 49.84375 
Q 52.203125 43.703125 52.203125 31.203125 
z
" id="DejaVuSans-97"/>
      <path d="M 18.3125 70.21875 
L 18.3125 54.6875 
L 36.8125 54.6875 
L 36.8125 47.703125 
L 18.3125 47.703125 
L 18.3125 18.015625 
Q 18.3125 11.328125 20.140625 9.421875 
Q 21.96875 7.515625 27.59375 7.515625 
L 36.8125 7.515625 
L 36.8125 0 
L 27.59375 0 
Q 17.1875 0 13.234375 3.875 
Q 9.28125 7.765625 9.28125 18.015625 
L 9.28125 47.703125 
L 2.6875 47.703125 
L 2.6875 54.6875 
L 9.28125 54.6875 
L 9.28125 70.21875 
z
" id="DejaVuSans-116"/>
      <path d="M 54.890625 33.015625 
L 54.890625 0 
L 45.90625 0 
L 45.90625 32.71875 
Q 45.90625 40.484375 42.875 44.328125 
Q 39.84375 48.1875 33.796875 48.1875 
Q 26.515625 48.1875 22.3125 43.546875 
Q 18.109375 38.921875 18.109375 30.90625 
L 18.109375 0 
L 9.078125 0 
L 9.078125 54.6875 
L 18.109375 54.6875 
L 18.109375 46.1875 
Q 21.34375 51.125 25.703125 53.5625 
Q 30.078125 56 35.796875 56 
Q 45.21875 56 50.046875 50.171875 
Q 54.890625 44.34375 54.890625 33.015625 
z
" id="DejaVuSans-110"/>
     </defs>
     <g transform="translate(83.920312 280.965312)rotate(-90)scale(0.1 -0.1)">
      <use xlink:href="#DejaVuSans-80"/>
      <use x="60.255859" xlink:href="#DejaVuSans-111"/>
      <use x="121.4375" xlink:href="#DejaVuSans-112"/>
      <use x="184.914062" xlink:href="#DejaVuSans-117"/>
      <use x="248.292969" xlink:href="#DejaVuSans-108"/>
      <use x="276.076172" xlink:href="#DejaVuSans-97"/>
      <use x="337.355469" xlink:href="#DejaVuSans-116"/>
      <use x="376.564453" xlink:href="#DejaVuSans-105"/>
      <use x="404.347656" xlink:href="#DejaVuSans-111"/>
      <use x="465.529297" xlink:href="#DejaVuSans-110"/>
     </g>
    </g>
   </g>
   <g id="line2d_1">
    <path clip-path="url(#p6a9de2e4cf)" d="M 115.363636 319.2 
L 125.526028 297.752984 
L 131.45409 285.780656 
L 135.68842 277.653563 
L 139.92275 269.981662 
L 143.310214 264.228555 
L 146.697678 258.861034 
L 150.085142 253.916746 
L 153.472606 249.430374 
L 156.013204 246.38516 
L 158.553802 243.627312 
L 161.0944 241.167715 
L 163.634998 239.016076 
L 166.175596 237.180886 
L 168.716194 235.669388 
L 171.256792 234.487547 
L 173.79739 233.640028 
L 176.337988 233.130175 
L 178.03172 232.978914 
L 179.725452 232.978914 
L 181.419183 233.130175 
L 183.112915 233.432432 
L 185.653513 234.167702 
L 188.194111 235.238555 
L 190.734709 236.640767 
L 193.275307 238.368801 
L 195.815905 240.41584 
L 198.356503 242.773803 
L 200.897101 245.433386 
L 203.437699 248.384092 
L 205.978297 251.614276 
L 209.365761 256.333746 
L 212.753225 261.494177 
L 216.140689 267.059372 
L 220.375019 274.525351 
L 224.609349 282.480794 
L 229.690545 292.550374 
L 235.618607 304.817863 
L 257.637122 350.947061 
L 262.718318 360.746437 
L 266.952648 368.418338 
L 270.340112 374.171445 
L 273.727576 379.538966 
L 277.11504 384.483254 
L 280.502504 388.969626 
L 283.043102 392.01484 
L 285.5837 394.772688 
L 288.124298 397.232285 
L 290.664896 399.383924 
L 293.205494 401.219114 
L 295.746092 402.730612 
L 298.28669 403.912453 
L 300.827288 404.759972 
L 303.367886 405.269825 
L 305.061618 405.421086 
L 306.75535 405.421086 
L 308.449082 405.269825 
L 310.142814 404.967568 
L 312.683412 404.232298 
L 315.22401 403.161445 
L 317.764608 401.759233 
L 320.305206 400.031199 
L 322.845804 397.98416 
L 325.386402 395.626197 
L 327.927 392.966614 
L 330.467598 390.015908 
L 333.008195 386.785724 
L 336.395659 382.066254 
L 339.783123 376.905823 
L 343.170587 371.340628 
L 347.404917 363.874649 
L 351.639247 355.919206 
L 356.720443 345.849626 
L 362.648505 333.582137 
L 384.667021 287.452939 
L 389.748217 277.653563 
L 393.982547 269.981662 
L 397.370011 264.228555 
L 400.757475 258.861034 
L 404.144939 253.916746 
L 407.532402 249.430374 
L 410.073 246.38516 
L 412.613598 243.627312 
L 415.154196 241.167715 
L 417.694794 239.016076 
L 420.235392 237.180886 
L 422.77599 235.669388 
L 425.316588 234.487547 
L 427.857186 233.640028 
L 430.397784 233.130175 
L 432.091516 232.978914 
L 433.785248 232.978914 
L 435.47898 233.130175 
L 437.172712 233.432432 
L 439.71331 234.167702 
L 442.253908 235.238555 
L 444.794506 236.640767 
L 447.335104 238.368801 
L 449.875702 240.41584 
L 452.4163 242.773803 
L 454.956898 245.433386 
L 457.497496 248.384092 
L 460.038094 251.614276 
L 463.425558 256.333746 
L 466.813022 261.494177 
L 470.200486 267.059372 
L 474.434816 274.525351 
L 478.669146 282.480794 
L 483.750341 292.550374 
L 489.678403 304.817863 
L 511.696919 350.947061 
L 516.778115 360.746437 
L 521.012445 368.418338 
L 524.399909 374.171445 
L 527.787373 379.538966 
L 531.174837 384.483254 
L 534.562301 388.969626 
L 537.102899 392.01484 
L 539.643497 394.772688 
L 542.184095 397.232285 
L 544.724693 399.383924 
L 547.265291 401.219114 
L 549.805889 402.730612 
L 552.346487 403.912453 
L 554.887085 404.759972 
L 557.427683 405.269825 
L 559.121414 405.421086 
L 560.815146 405.421086 
L 562.508878 405.269825 
L 564.20261 404.967568 
L 566.743208 404.232298 
L 569.283806 403.161445 
L 571.824404 401.759233 
L 574.365002 400.031199 
L 576.9056 397.98416 
L 579.446198 395.626197 
L 581.986796 392.966614 
L 584.527394 390.015908 
L 587.067992 386.785724 
L 590.455456 382.066254 
L 593.84292 376.905823 
L 597.230384 371.340628 
L 601.464714 363.874649 
L 605.699044 355.919206 
L 610.78024 345.849626 
L 616.708302 333.582137 
L 622.636364 321.006074 
L 622.636364 321.006074 
" style="fill:none;stroke:#1f77b4;stroke-linecap:square;stroke-width:1.5;"/>
   </g>
   <g id="line2d_2">
    <path clip-path="url(#p6a9de2e4cf)" d="M 115.363636 181.216 
L 117.057368 181.306777 
L 118.7511 181.578947 
L 120.444832 182.032034 
L 122.138564 182.665242 
L 123.832296 183.477461 
L 125.526028 184.467266 
L 128.066626 186.281063 
L 130.607224 188.483291 
L 133.147822 191.065258 
L 135.68842 194.016774 
L 138.229018 197.326192 
L 140.769616 200.980449 
L 143.310214 204.965126 
L 146.697678 210.764651 
L 150.085142 217.082809 
L 153.472606 223.87528 
L 157.706936 232.96 
L 161.941266 242.611638 
L 167.022462 254.792677 
L 173.79739 271.733514 
L 191.581575 316.683551 
L 196.662771 328.767047 
L 200.897101 338.313579 
L 205.131431 347.272753 
L 208.518895 353.950988 
L 211.906359 360.143505 
L 215.293823 365.806869 
L 217.834421 369.683089 
L 220.375019 373.223937 
L 222.915617 376.415436 
L 225.456215 379.244992 
L 227.996813 381.701439 
L 230.537411 383.77508 
L 233.078009 385.457734 
L 234.771741 386.358943 
L 236.465473 387.081815 
L 238.159205 387.625082 
L 239.852937 387.98779 
L 241.546669 388.169303 
L 243.240401 388.169303 
L 244.934133 387.98779 
L 246.627865 387.625082 
L 248.321597 387.081815 
L 250.015329 386.358943 
L 251.709061 385.457734 
L 253.402793 384.379768 
L 255.94339 382.435622 
L 258.483988 380.105774 
L 261.024586 377.399419 
L 263.565184 374.327237 
L 266.105782 370.901353 
L 268.64638 367.135288 
L 271.186978 363.043904 
L 274.574442 357.11076 
L 277.961906 350.669734 
L 281.34937 343.766006 
L 285.5837 334.559724 
L 289.81803 324.807213 
L 294.899226 312.533974 
L 301.674154 295.521442 
L 317.764608 254.792677 
L 322.845804 242.611638 
L 327.080134 232.96 
L 331.314463 223.87528 
L 334.701927 217.082809 
L 338.089391 210.764651 
L 341.476855 204.965126 
L 344.017453 200.980449 
L 346.558051 197.326192 
L 349.098649 194.016774 
L 351.639247 191.065258 
L 354.179845 188.483291 
L 356.720443 186.281063 
L 359.261041 184.467266 
L 360.954773 183.477461 
L 362.648505 182.665242 
L 364.342237 182.032034 
L 366.035969 181.578947 
L 367.729701 181.306777 
L 369.423433 181.216 
L 371.117165 181.306777 
L 372.810897 181.578947 
L 374.504629 182.032034 
L 376.198361 182.665242 
L 377.892093 183.477461 
L 379.585825 184.467266 
L 382.126423 186.281063 
L 384.667021 188.483291 
L 387.207619 191.065258 
L 389.748217 194.016774 
L 392.288815 197.326192 
L 394.829413 200.980449 
L 397.370011 204.965126 
L 400.757475 210.764651 
L 404.144939 217.082809 
L 407.532402 223.87528 
L 411.766732 232.96 
L 416.001062 242.611638 
L 421.082258 254.792677 
L 427.857186 271.733514 
L 445.641372 316.683551 
L 450.722568 328.767047 
L 454.956898 338.313579 
L 459.191228 347.272753 
L 462.578692 353.950988 
L 465.966156 360.143505 
L 469.35362 365.806869 
L 471.894218 369.683089 
L 474.434816 373.223937 
L 476.975414 376.415436 
L 479.516012 379.244992 
L 482.05661 381.701439 
L 484.597207 383.77508 
L 487.137805 385.457734 
L 488.831537 386.358943 
L 490.525269 387.081815 
L 492.219001 387.625082 
L 493.912733 387.98779 
L 495.606465 388.169303 
L 497.300197 388.169303 
L 498.993929 387.98779 
L 500.687661 387.625082 
L 502.381393 387.081815 
L 504.075125 386.358943 
L 505.768857 385.457734 
L 507.462589 384.379768 
L 510.003187 382.435622 
L 512.543785 380.105774 
L 515.084383 377.399419 
L 517.624981 374.327237 
L 520.165579 370.901353 
L 522.706177 367.135288 
L 525.246775 363.043904 
L 528.634239 357.11076 
L 532.021703 350.669734 
L 535.409167 343.766006 
L 539.643497 334.559724 
L 543.877827 324.807213 
L 548.959023 312.533974 
L 555.733951 295.521442 
L 571.824404 254.792677 
L 576.9056 242.611638 
L 581.13993 232.96 
L 585.37426 223.87528 
L 588.761724 217.082809 
L 592.149188 210.764651 
L 595.536652 204.965126 
L 598.07725 200.980449 
L 600.617848 197.326192 
L 603.158446 194.016774 
L 605.699044 191.065258 
L 608.239642 188.483291 
L 610.78024 186.281063 
L 613.320838 184.467266 
L 615.01457 183.477461 
L 616.708302 182.665242 
L 618.402034 182.032034 
L 620.095766 181.578947 
L 621.789498 181.306777 
L 622.636364 181.238697 
L 622.636364 181.238697 
" style="fill:none;stroke:#ff7f0e;stroke-linecap:square;stroke-width:1.5;"/>
   </g>
   <g id="patch_3">
    <path d="M 90 448.56 
L 90 60.48 
" style="fill:none;stroke:#000000;stroke-linecap:square;stroke-linejoin:miter;stroke-width:0.8;"/>
   </g>
   <g id="patch_4">
    <path d="M 648 448.56 
L 648 60.48 
" style="fill:none;stroke:#000000;stroke-linecap:square;stroke-linejoin:miter;stroke-width:0.8;"/>
   </g>
   <g id="patch_5">
    <path d="M 90 448.56 
L 648 448.56 
" style="fill:none;stroke:#000000;stroke-linecap:square;stroke-linejoin:miter;stroke-width:0.8;"/>
   </g>
   <g id="patch_6">
    <path d="M 90 60.48 
L 648 60.48 
" style="fill:none;stroke:#000000;stroke-linecap:square;stroke-linejoin:miter;stroke-width:0.8;"/>
   </g>
   <g id="legend_1">
    <g id="patch_7">
     <path d="M 565.764063 97.83625 
L 641 97.83625 
Q 643 97.83625 643 95.83625 
L 643 67.48 
Q 643 65.48 641 65.48 
L 565.764063 65.48 
Q 563.764063 65.48 563.764063 67.48 
L 563.764063 95.83625 
Q 563.764063 97.83625 565.764063 97.83625 
z
" style="fill:#ffffff;opacity:0.8;stroke:#cccccc;stroke-linejoin:miter;"/>
    </g>
    <g id="line2d_3">
     <path d="M 567.764063 73.578438 
L 587.764063 73.578438 
" style="fill:none;stroke:#1f77b4;stroke-linecap:square;stroke-width:1.5;"/>
    </g>
    <g id="line2d_4"/>
    <g id="text_3">
     <!-- predator -->
     <defs>
      <path d="M 41.109375 46.296875 
Q 39.59375 47.171875 37.8125 47.578125 
Q 36.03125 48 33.890625 48 
Q 26.265625 48 22.1875 43.046875 
Q 18.109375 38.09375 18.109375 28.8125 
L 18.109375 0 
L 9.078125 0 
L 9.078125 54.6875 
L 18.109375 54.6875 
L 18.109375 46.1875 
Q 20.953125 51.171875 25.484375 53.578125 
Q 30.03125 56 36.53125 56 
Q 37.453125 56 38.578125 55.875 
Q 39.703125 55.765625 41.0625 55.515625 
z
" id="DejaVuSans-114"/>
      <path d="M 45.40625 46.390625 
L 45.40625 75.984375 
L 54.390625 75.984375 
L 54.390625 0 
L 45.40625 0 
L 45.40625 8.203125 
Q 42.578125 3.328125 38.25 0.953125 
Q 33.9375 -1.421875 27.875 -1.421875 
Q 17.96875 -1.421875 11.734375 6.484375 
Q 5.515625 14.40625 5.515625 27.296875 
Q 5.515625 40.1875 11.734375 48.09375 
Q 17.96875 56 27.875 56 
Q 33.9375 56 38.25 53.625 
Q 42.578125 51.265625 45.40625 46.390625 
z
M 14.796875 27.296875 
Q 14.796875 17.390625 18.875 11.75 
Q 22.953125 6.109375 30.078125 6.109375 
Q 37.203125 6.109375 41.296875 11.75 
Q 45.40625 17.390625 45.40625 27.296875 
Q 45.40625 37.203125 41.296875 42.84375 
Q 37.203125 48.484375 30.078125 48.484375 
Q 22.953125 48.484375 18.875 42.84375 
Q 14.796875 37.203125 14.796875 27.296875 
z
" id="DejaVuSans-100"/>
     </defs>
     <g transform="translate(595.764063 77.078438)scale(0.1 -0.1)">
      <use xlink:href="#DejaVuSans-112"/>
      <use x="63.476562" xlink:href="#DejaVuSans-114"/>
      <use x="104.558594" xlink:href="#DejaVuSans-101"/>
      <use x="166.082031" xlink:href="#DejaVuSans-100"/>
      <use x="229.558594" xlink:href="#DejaVuSans-97"/>
      <use x="290.837891" xlink:href="#DejaVuSans-116"/>
      <use x="330.046875" xlink:href="#DejaVuSans-111"/>
      <use x="391.228516" xlink:href="#DejaVuSans-114"/>
     </g>
    </g>
    <g id="line2d_5">
     <path d="M 567.764063 88.256563 
L 587.764063 88.256563 
" style="fill:none;stroke:#ff7f0e;stroke-linecap:square;stroke-width:1.5;"/>
    </g>
    <g id="line2d_6"/>
    <g id="text_4">
     <!-- prey -->
     <defs>
      <path d="M 32.171875 -5.078125 
Q 28.375 -14.84375 24.75 -17.8125 
Q 21.140625 -20.796875 15.09375 -20.796875 
L 7.90625 -20.796875 
L 7.90625 -13.28125 
L 13.1875 -13.28125 
Q 16.890625 -13.28125 18.9375 -11.515625 
Q 21 -9.765625 23.484375 -3.21875 
L 25.09375 0.875 
L 2.984375 54.6875 
L 12.5 54.6875 
L 29.59375 11.921875 
L 46.6875 54.6875 
L 56.203125 54.6875 
z
" id="DejaVuSans-121"/>
     </defs>
     <g transform="translate(595.764063 91.756563)scale(0.1 -0.1)">
      <use xlink:href="#DejaVuSans-112"/>
      <use x="63.476562" xlink:href="#DejaVuSans-114"/>
      <use x="104.558594" xlink:href="#DejaVuSans-101"/>
      <use x="166.082031" xlink:href="#DejaVuSans-121"/>
     </g>
    </g>
   </g>
  </g>
 </g>
 <defs>
  <clipPath id="p6a9de2e4cf">
   <rect height="388.08" width="558" x="90" y="60.48"/>
  </clipPath>
 </defs>
</svg>
